{
  "info": {
    "count": 126,
    "pages": 7,
    "next": "https://rickandmortyapi.com/api/location?page=2",
    "prev": null
  },
  "results": [
    {
      "id": 1,
      "name": "Earth (C-137)",
      "type": "Planet",
      "dimension": "Dimension C-137",
      "residents": [
        "https://rickandmortyapi.com/api/character/38",
        "https://rickandmortyapi.com/api/character/45",
        "https://rickandmortyapi.com/api/character/71",
        "https://rickandmortyapi.com/api/character/82",
        "https://rickandmortyapi.com/api/character/83"
      ],
      "url": "https://rickandmortyapi.com/api/location/1",
      "created": "2017-11-10T12:42:04.162Z"
    },
    {
      "id": 2,
      "name": "Abadango",
      "type": "Cluster",
      "dimension": "unknown",
      "residents": [
        "https://rickandmortyapi.com/api/character/6"
      ],
      "url": "https://rickandmortyapi.com/api/location/2",
      "created": "2017-11-10T13:06:38.182Z"
    },
    {
      "id": 3,
      "name": "Citadel of Ricks",
      "type": "Space station",
      "dimension": "unknown",
      "residents": [
        "https://rickandmortyapi.com/api/character/8",
        "https://rickandmortyapi.com/api/character/14",
        "https://rickandmortyapi.com/api/character/44"
      ],
      "url": "https://rickandmortyapi.com/api/location/3",
      "created": "2017-11-10T13:08:13.191Z"
    },
    {
      "id": 4,
      "name": "Worldender's lair",
      "type": "Planet",
      "dimension": "unknown",
      "residents": [
        "https://rickandmortyapi.com/api/character/10",
        "https://rickandmortyapi.com/api/character/81",
        "https://rickandmortyapi.com/api/character/208",
        "https://rickandmortyapi.com/api/character/395"
      ],
      "url": "https://rickandmortyapi.com/api/location/4",
      "created": "2017-11-10T13:08:20.569Z"
    },
    {
      "id": 5,
      "name": "Anatomy Park",
      "type": "Microverse",
      "dimension": "Dimension C-137",
      "residents": [
        "https://rickandmortyapi.com/api/character/12",
        "https://rickandmortyapi.com/api/character/17"
      ],
      "url": "https://rickandmortyapi.com/api/location/5",
      "created": "2017-11-10T13:08:46.060Z"
    },
    {
      "id": 6,
      "name": "Interdimensional Cable",
      "type": "TV",
      "dimension": "unknown",
      "residents": [
        "https://rickandmortyapi.com/api/character/20",
        "https://rickandmortyapi.com/api/character/28",
        "https://rickandmortyapi.com/api/character/709",
        "https://rickandmortyapi.com/api/character/711"
      ],
      "url": "https://rickandmortyapi.com/api/location/6",
      "created": "2017-11-10T13:09:09.102Z"
    },
    {
      "id": 7,
      "name": "Immortality Field Resort",
      "type": "Resort",
      "dimension": "unknown",
      "residents": [
        "https://rickandmortyapi.com/api/character/23",
        "https://rickandmortyapi.com/api/character/204",
        "https://rickandmortyapi.com/api/character/320"
      ],
      "url": "https://rickandmortyapi.com/api/location/7",
      "created": "2017-11-10T13:09:17.136Z"
    },
    {
      "id": 8,
      "name": "Post-Apocalyptic Earth",
      "type": "Planet",
      "dimension": "Post-Apocalyptic Dimension",
      "residents": [
        "https://rickandmortyapi.com/api/character/25",
        "https://rickandmortyapi.com/api/character/52",
        "https://rickandmortyapi.com/api/character/68",
        "https://rickandmortyapi.com/api/character/110",
        "https://rickandmortyapi.com/api/character/342"
      ],
      "url": "https://rickandmortyapi.com/api/location/8",
      "created": "2017-11-10T13:09:22.551Z"
    },
    {
      "id": 9,
      "name": "Purge Planet",
      "type": "Planet",
      "dimension": "Replacement Dimension",
      "residents": [
        "https://rickandmortyapi.com/api/character/26",
        "https://rickandmortyapi.com/api/character/139",
        "https://rickandmortyapi.com/api/character/202",
        "https://rickandmortyapi.com/api/character/273"
      ],
      "url": "https://rickandmortyapi.com/api/location/9",
      "created": "2017-11-10T13:09:29.566Z"
    },
    {
      "id": 10,
      "name": "Venzenulon 7",
      "type": "Planet",
      "dimension": "unknown",
      "residents": [
        "https://rickandmortyapi.com/api/character/33"
      ],
      "url": "https://rickandmortyapi.com/api/location/10",
      "created": "2017-11-18T11:21:51.643Z"
    },
    {
      "id": 11,
      "name": "Bepis 9",
      "type": "Planet",
      "dimension": "unknown",
      "residents": [
        "https://rickandmortyapi.com/api/character/35"
      ],
      "url": "https://rickandmortyapi.com/api/location/11",
      "created": "2017-11-18T11:26:03.325Z"
    },
    {
      "id": 12,
      "name": "Cronenberg Earth",
      "type": "Planet",
      "dimension": "Cronenberg Dimension",
      "residents": [],
      "url": "https://rickandmortyapi.com/api/location/12",
      "created": "2017-11-18T11:29:27.857Z"
    },
    {
      "id": 13,
      "name": "Nuptia 4",
      "type": "Planet",
      "dimension": "unknown",
      "residents": [
        "https://rickandmortyapi.com/api/character/40",
        "https://rickandmortyapi.com/api/character/55",
        "https://rickandmortyapi.com/api/character/131",
        "https://rickandmortyapi.com/api/character/132",
        "https://rickandmortyapi.com/api/character/146",
        "https://rickandmortyapi.com/api/character/148",
        "https://rickandmortyapi.com/api/character/163",
        "https://rickandmortyapi.com/api/character/178",
        "https://rickandmortyapi.com/api/character/310",
        "https://rickandmortyapi.com/api/character/386",
        "https://rickandmortyapi.com/api/character/387"
      ],
      "url": "https://rickandmortyapi.com/api/location/13",
      "created": "2017-11-18T11:30:29.780Z"
    },
    {
      "id": 14,
      "name": "Giant's Town",
      "type": "Fantasy town",
      "dimension": "Fantasy Dimension",
      "residents": [
        "https://rickandmortyapi.com/api/character/89",
        "https://rickandmortyapi.com/api/character/399",
        "https://rickandmortyapi.com/api/character/400"
      ],
      "url": "https://rickandmortyapi.com/api/location/14",
      "created": "2017-11-18T11:31:15.248Z"
    },
    {
      "id": 15,
      "name": "Bird World",
      "type": "Planet",
      "dimension": "unknown",
      "residents": [],
      "url": "https://rickandmortyapi.com/api/location/15",
      "created": "2017-11-18T11:32:26.752Z"
    },
    {
      "id": 16,
      "name": "St. Gloopy Noops Hospital",
      "type": "Space station",
      "dimension": "unknown",
      "residents": [
        "https://rickandmortyapi.com/api/character/105",
        "https://rickandmortyapi.com/api/character/263",
        "https://rickandmortyapi.com/api/character/321",
        "https://rickandmortyapi.com/api/character/383",
        "https://rickandmortyapi.com/api/character/384",
        "https://rickandmortyapi.com/api/character/454",
        "https://rickandmortyapi.com/api/character/455",
        "https://rickandmortyapi.com/api/character/456",
        "https://rickandmortyapi.com/api/character/460"
      ],
      "url": "https://rickandmortyapi.com/api/location/16",
      "created": "2017-11-18T11:43:20.075Z"
    },
    {
      "id": 17,
      "name": "Earth (5-126)",
      "type": "Planet",
      "dimension": "Dimension 5-126",
      "residents": [],
      "url": "https://rickandmortyapi.com/api/location/17",
      "created": "2017-11-18T11:41:08.486Z"
    },
    {
      "id": 18,
      "name": "Mr. Goldenfold's dream",
      "type": "Dream",
      "dimension": "Dimension C-137",
      "residents": [
        "https://rickandmortyapi.com/api/character/63",
        "https://rickandmortyapi.com/api/character/80",
        "https://rickandmortyapi.com/api/character/221",
        "https://rickandmortyapi.com/api/character/246",
        "https://rickandmortyapi.com/api/character/304",
        "https://rickandmortyapi.com/api/character/305",
        "https://rickandmortyapi.com/api/character/306",
        "https://rickandmortyapi.com/api/character/396"
      ],
      "url": "https://rickandmortyapi.com/api/location/18",
      "created": "2017-11-18T11:46:22.933Z"
    },
    {
      "id": 19,
      "name": "Gromflom Prime",
      "type": "Planet",
      "dimension": "Replacement Dimension",
      "residents": [],
      "url": "https://rickandmortyapi.com/api/location/19",
      "created": "2017-11-18T11:39:52.165Z"
    },
    {
      "id": 20,
      "name": "Earth (Replacement Dimension)",
      "type": "Planet",
      "dimension": "Replacement Dimension",
      "residents": [
        "https://rickandmortyapi.com/api/character/3",
        "https://rickandmortyapi.com/api/character/4",
        "https://rickandmortyapi.com/api/character/5",
        "https://rickandmortyapi.com/api/character/9",
        "https://rickandmortyapi.com/api/character/11",
        "https://rickandmortyapi.com/api/character/13"
      ],
      "url": "https://rickandmortyapi.com/api/location/20",
      "created": "2017-11-18T19:33:01.173Z"
    }
  ]
}